…
```
## The following objects are masked from 'package:base':
## 
##     intersect, setdiff, setequal, union
```

```r
statestorm %>% group_by(STATE)
```

```
## # A tibble: 634,826 x 37
## # Groups:   STATE [50]
##    STATE__ BGN_DATE            BGN_TIME TIME_ZONE COUNTY COUNTYNAME STATE
##  *   <dbl> <dttm>              <fct>    <fct>      <dbl> <fct>      <fct>
##  1       1 1996-01-06 00:00:00 08:00:0… CST            1 ALZ001>038 AL   
##  2       1 1996-01-11 00:00:00 06:35:0… CST           31 COFFEE     AL   
##  3       1 1996-01-11 00:00:00 06:45:0… CST           31 COFFEE     AL   
##  4       1 1996-01-11 00:00:00 07:05:0… CST           45 DALE       AL   
##  5       1 1996-01-11 00:00:00 07:38:0… CST           67 HENRY      AL   
##  6       1 1996-01-18 00:00:00 05:05:0… CST          125 TUSCALOOSA AL   
##  7       1 1996-01-18 00:00:00 06:00:0… CST            1 ALZ001>01… AL   
##  8       1 1996-01-19 00:00:00 12:20:0… CST           75 LAMAR      AL   
##  9       1 1996-01-24 00:00:00 03:40:0… CST           51 ELMORE     AL   
## 10       1 1996-01-24 00:00:00 03:45:0… CST          101 MONTGOMERY AL   
## # … with 634,816 more rows, and 30 more variables: EVTYPE <fct>,
## #   BGN_RANGE <dbl>, BGN_AZI <fct>, BGN_LOCATI <fct>, END_DATE <fct>,
## #   END_TIME <fct>, COUNTY_END <dbl>, COUNTYENDN <lgl>, END_RANGE <dbl>,
## #   END_AZI <fct>, END_LOCATI <fct>, LENGTH <dbl>, WIDTH <dbl>, F <int>,
## #   MAG <dbl>, FATALITIES <dbl>, INJURIES <dbl>, PROPDMG <dbl>,
## #   PROPDMGEXP <fct>, CROPDMG <dbl>, CROPDMGEXP <fct>, WFO <fct>,
## #   STATEOFFIC <fct>, ZONENAMES <fct>, LATITUDE <dbl>, LONGITUDE <dbl>,
## #   LATITUDE_E <dbl>, LONGITUDE_ <dbl>, REMARKS <fct>, REFNUM <dbl>
```
…
